<?xml version="1.0"?><svg width="640" height="480" xmlns="http://www.w3.org/2000/svg" xmlns:xlink="http://www.w3.org/1999/xlink">
 <title>penguin clip art</title>
 <defs>
  <linearGradient id="linearGradient3309">
   <stop stop-color="#ffd5d5" id="stop3311" offset="0"/>
   <stop stop-color="#ffd5d5" stop-opacity="0" id="stop3313" offset="1"/>
  </linearGradient>
  <linearGradient id="linearGradient3301">
   <stop stop-color="#ffd5d5" id="stop3303" offset="0"/>
   <stop stop-color="#ffd5d5" stop-opacity="0" id="stop3305" offset="1"/>
  </linearGradient>
  <linearGradient id="linearGradient3252">
   <stop stop-color="#ffd5d5" id="stop3254" offset="0"/>
   <stop stop-color="#ffd5d5" stop-opacity="0" id="stop3256" offset="1"/>
  </linearGradient>
  <linearGradient id="linearGradient3188">
   <stop stop-color="#000000" id="stop3190" offset="0"/>
   <stop stop-color="#200000" stop-opacity="0.380531" id="stop3192" offset="1"/>
  </linearGradient>
  <linearGradient gradientTransform="translate(3.3631123e-6,4.6923738e-6)" y2="15.836388" x2="-655.7049" y1="15.836388" x1="-1012.6929" gradientUnits="userSpaceOnUse" id="linearGradient3218" xlink:href="#linearGradient3188"/>
  <radialGradient gradientUnits="userSpaceOnUse" gradientTransform="matrix(1,0,0,1.008195,537.90461,36.77209)" r="21.417067" fy="225.34674" fx="178.95053" cy="225.34674" cx="178.95053" id="radialGradient3250" xlink:href="#linearGradient3252"/>
  <radialGradient gradientUnits="userSpaceOnUse" gradientTransform="matrix(1,0,0,1.008195,537.90461,36.792071)" r="21.417067" fy="222.90856" fx="300.37188" cy="222.90856" cx="300.37188" id="radialGradient3258" xlink:href="#linearGradient3252"/>
  <radialGradient gradientUnits="userSpaceOnUse" gradientTransform="matrix(1,0,0,1.0562691,537.90461,26.614797)" r="18.964533" fy="213.33191" fx="211.76931" cy="213.33191" cx="211.76931" id="radialGradient3307" xlink:href="#linearGradient3301"/>
  <radialGradient gradientUnits="userSpaceOnUse" gradientTransform="matrix(1,0,0,1.0562691,537.90461,26.53719)" r="18.964534" fy="214.71115" fx="86.258216" cy="214.71115" cx="86.258216" id="radialGradient3315" xlink:href="#linearGradient3309"/>
 </defs>
 <metadata id="metadata7">image/svg+xml</metadata>
 <g>
  <title>Layer 1</title>
  <g id="layer1">
   <g id="g3457">
    <g id="g4939">
     <g id="g3466">
      <path fill="#000000" d="m236.686707,398.906677c-31.402954,-9.21521 -51.539001,-55.017029 -61.54892,-97.612976c-4.265289,-18.150513 -18.952484,-10.776581 -27.238281,-17.351013c-14.386383,-11.414795 -18.149323,-15.589539 0.745361,-21.373901c9.120087,-2.792053 16.935333,-20.674454 21.230621,-50.447906c11.640106,-80.685013 23.930115,-107.019669 62.57901,-134.091949c29.38092,-20.580383 45.692535,-25.55542 83.788422,-25.55542c81.405426,0 126.684174,50.04158 143.899689,159.036346c3.402618,21.542557 17.077728,40.278732 25.331146,46.863251c8.353027,6.66391 9.744995,11.848694 2.997192,18.214661c-4.232391,3.99292 -28.219025,6.062866 -31.996429,21.717285c-11.039307,45.749664 -22.338043,85.64032 -59.087036,97.890137c-39.384125,13.128235 -120.537292,14.497498 -160.700775,2.711487zm187.967468,-131.669312c0.314148,-67.342407 -9.124023,-147.122299 -45.826508,-164.96685c-15.9245,-7.742409 -26.986237,10.64843 -57.584686,26.342918c-15.12851,-2.695587 -29.384369,-30.211594 -53.14856,-28.834297c-22.039703,1.277344 -38.616455,25.49575 -44.912567,43.701363c-30.663422,88.664948 -32.296173,206.165009 45.034912,230.832428c105.195892,26.437195 148.558716,-9.493652 156.437408,-107.075562z" id="path2453"/>
      <path fill="#ff7f2a" d="m325.736267,162.993286c2.373962,2.028397 5.077515,5.484909 7.578888,9.556137c3.366974,5.480072 5.293945,10.695267 6.631195,16.41922c-7.766907,-1.273087 -15.413727,-1.492859 -23.208435,-1.405319c-8.247284,0.092621 -13.258667,-0.170395 -20.856476,2.435364c-0.550568,1.116791 1.490417,-9.098801 5.556244,-16.120331c3.46936,-5.991394 9.538757,-12.400909 13.141846,-13.878311c3.09671,-1.269745 7.57309,-0.068756 11.156738,2.99324z" id="path3413"/>
      <path fill="#000000" d="m269.327484,422.717957c-17.891602,-4.635193 -23.286621,-10.332886 -16.363861,-17.281921c10.779755,-10.820801 49.267639,-10.886963 62.093781,-0.10675c4.001373,3.363037 4.430267,4.676636 2.575989,7.889984c-1.223572,2.120361 -5.744019,5.173859 -10.045441,6.785553c-8.709198,3.263184 -30.243164,4.790283 -38.260468,2.713135z" id="path3411"/>
      <path fill="#000000" d="m268.583466,153.038925c-6.682709,-6.434265 -1.947357,-17.570938 7.471191,-17.570938c5.410767,0 10.778168,5.051376 10.778168,10.143555c0,9.553543 -11.275024,14.142441 -18.249359,7.427383z" id="path3343"/>
      <path fill="#000000" d="m343.704498,421.767761c-17.891602,-4.635223 -23.286621,-10.332886 -16.363861,-17.281982c10.779755,-10.82074 49.267639,-10.886871 62.093781,-0.10675c4.001373,3.363037 4.430206,4.676697 2.575958,7.890015c-1.223572,2.120392 -5.744019,5.173889 -10.045441,6.785583c-8.709198,3.263184 -30.243164,4.790283 -38.260437,2.713135z" id="path3439"/>
      <path fill="#ff7f2a" d="m325.37561,202.890594c2.361786,-0.980072 5.051514,-2.650177 7.540039,-4.61731c3.349731,-2.647858 5.751221,-6.60463 7.081635,-9.3703c-6.948944,-1.59726 -14.277252,-1.7836 -22.019348,-1.422058c-7.317535,0.341736 -13.989838,-0.932678 -22.28717,2.569794c-0.049713,-0.048981 -0.01535,-0.012161 -0.020813,0.020126c-0.054688,0.323624 1.853699,4.475632 5.531586,7.560318c3.451538,2.894913 9.489868,5.991852 13.074493,6.705704c3.080841,0.61351 7.534271,0.033218 11.099579,-1.446274z" id="path3445"/>
      <path fill="#000000" d="m346.59668,152.666824c-6.682709,-6.434265 -1.947388,-17.570938 7.471191,-17.570938c5.410767,0 10.778168,5.051376 10.778168,10.143555c0,9.553543 -11.275055,14.142441 -18.249359,7.427383z" id="path3455"/>
      <path fill="url(#radialGradient3258)" id="path3222" d="m357.873718,199.355087c-13.38974,-13.38855 -3.901825,-36.561981 14.969604,-36.561981c10.841217,0 21.59552,10.511002 21.59552,21.106918c0,19.879227 -22.591125,29.427872 -36.565125,15.455063z"/>
      <path fill="url(#radialGradient3250)" d="m236.452362,201.793274c-13.38974,-13.388565 -3.901825,-36.561981 14.969574,-36.561981c10.841248,0 21.595581,10.511002 21.595581,21.106903c0,19.879242 -22.591156,29.427887 -36.565155,15.455078z" id="path3224"/>
      <path fill="url(#radialGradient3315)" id="path3273" d="m239.283203,195.592499c-11.856445,-12.420685 -3.455017,-33.9189 13.255402,-33.9189c9.599731,0 19.122559,9.75116 19.122559,19.581085c0,18.442169 -20.00415,27.300552 -32.37796,14.337814z"/>
      <path fill="url(#radialGradient3307)" d="m364.794312,194.213257c-11.856476,-12.420685 -3.455017,-33.9189 13.255341,-33.9189c9.599762,0 19.122589,9.75116 19.122589,19.5811c0,18.442154 -20.00415,27.300537 -32.37793,14.337799z" id="path3275"/>
      <path fill="#ffffff" fill-rule="nonzero" stroke-width="0.368" stroke-linecap="round" stroke-linejoin="round" stroke-miterlimit="4" stroke-dashoffset="0" id="path2414" d="m306.634247,380.896729c-15.350525,-1.879028 -36.992157,-6.698853 -44.825409,-9.983093c-37.147034,-15.574524 -57.238556,-56.55191 -57.238556,-116.739975c0,-30.212311 4.419769,-59.951401 13.853027,-93.212311c10.967316,-38.670013 29.275543,-59.997055 51.504517,-59.997055c9.148285,0 17.474274,4.080421 31.06192,15.222824c10.688568,8.765106 16.507141,12.36203 19.997314,12.36203c2.644714,0 11.856812,-5.437088 28.723877,-16.953156c15.606415,-10.655342 20.341248,-12.00248 28.847534,-8.207657c27.445313,12.243942 44.349426,68.633911 44.546875,148.603012c0.065338,26.471878 -0.325134,32.237228 -3.060425,45.18663c-9.989746,47.293335 -30.186646,72.748749 -64.76532,81.627563c-10.650482,2.734741 -34.879028,3.776245 -48.645355,2.091156l0,0.000031zm22.067871,-179.399078c6.464386,-3.882767 10.926758,-9.431229 10.970856,-13.641068c0.052826,-5.043594 -5.688965,-16.520584 -11.175476,-22.337982c-6.174988,-6.547379 -11.23407,-7.885437 -16.121552,-4.263947c-5.394684,3.997299 -12.000946,13.118195 -14.788788,20.41806c-3.238342,8.479492 -1.728882,12.523468 6.812927,18.252243c8.19577,5.496735 16.83786,6.056 24.302032,1.572708l0,-0.000015zm-44.23587,-48.997757c3.792053,-4.820816 3.610474,-9.531815 -0.526825,-13.669113c-6.855804,-6.855774 -18.682465,-2.69104 -18.682465,6.578918c0,9.990097 13.119263,14.832428 19.20929,7.090195l0,0zm75.904053,2.283997c1.387482,-0.742584 3.195801,-3.28093 4.018433,-5.640762c4.465393,-12.809402 -14.365112,-20.066055 -20.243469,-7.801224c-4.429871,9.242599 6.75592,18.509705 16.225037,13.441971l0,0.000015z"/>
     </g>
    </g>
    <rect opacity="0.99" fill="#ffaaaa" fill-rule="evenodd" stroke="#000000" y="21.54356" x="19.0224" height="124.23474" width="0" id="rect3477"/>
   </g>
  </g>
 </g>
</svg>
